EESchema Schematic File Version 4
LIBS:SG3525_board-cache
EELAYER 30 0
EELAYER END
$Descr A4 11693 8268
encoding utf-8
Sheet 1 1
Title ""
Date ""
Rev ""
Comp ""
Comment1 ""
Comment2 ""
Comment3 ""
Comment4 ""
$EndDescr
$Comp
L Regulator_Controller:SG3525 U1
U 1 1 5C0792F4
P 4200 2650
F 0 "U1" H 4350 1950 50  0000 C CNN
F 1 "SG3525" H 4400 1850 50  0000 C CNN
F 2 "Package_DIP:DIP-16_W7.62mm_LongPads" H 4200 2650 50  0001 C CNN
F 3 "www.st.com/resource/en/datasheet/sg3525.pdf" H 4200 2650 50  0001 C CNN
	1    4200 2650
	1    0    0    -1  
$EndComp
$Comp
L SG3525_board-rescue:IR2110-Driver_FET U2
U 1 1 5C0793F1
P 5650 2450
F 0 "U2" H 5650 3117 50  0000 C CNN
F 1 "IR2110" H 5650 3026 50  0000 C CNN
F 2 "Package_DIP:DIP-14_W7.62mm_LongPads" H 5650 1900 50  0001 C CIN
F 3 "https://www.infineon.com/dgdl/ir2110.pdf?fileId=5546d462533600a4015355c80333167e" H 5450 1900 50  0001 C CNN
	1    5650 2450
	1    0    0    -1  
$EndComp
$Comp
L power:GND #PWR0101
U 1 1 5C07953E
P 4200 3450
F 0 "#PWR0101" H 4200 3200 50  0001 C CNN
F 1 "GND" H 4205 3277 50  0000 C CNN
F 2 "" H 4200 3450 50  0001 C CNN
F 3 "" H 4200 3450 50  0001 C CNN
	1    4200 3450
	1    0    0    -1  
$EndComp
Wire Wire Line
	4200 3450 4200 3350
$Comp
L Device:D_Zener D1
U 1 1 5C079A5E
P 3950 1250
F 0 "D1" V 3904 1329 50  0000 L CNN
F 1 "15V" V 3995 1329 50  0000 L CNN
F 2 "Diode_THT:D_T-1_P10.16mm_Horizontal" H 3950 1250 50  0001 C CNN
F 3 "~" H 3950 1250 50  0001 C CNN
	1    3950 1250
	0    1    1    0   
$EndComp
$Comp
L power:GND #PWR0102
U 1 1 5C079CB4
P 3950 1400
F 0 "#PWR0102" H 3950 1150 50  0001 C CNN
F 1 "GND" H 3955 1227 50  0000 C CNN
F 2 "" H 3950 1400 50  0001 C CNN
F 3 "" H 3950 1400 50  0001 C CNN
	1    3950 1400
	1    0    0    -1  
$EndComp
Wire Wire Line
	7400 900  6850 900 
Wire Wire Line
	4200 900  4200 1800
Wire Wire Line
	4300 1950 4300 1800
Wire Wire Line
	4300 1800 4200 1800
Connection ~ 4200 1800
Wire Wire Line
	4200 1800 4200 1950
Connection ~ 6050 900 
Wire Wire Line
	3950 1100 3950 900 
Connection ~ 4200 900 
Wire Wire Line
	5350 2550 4700 2550
Wire Wire Line
	5350 2650 4800 2650
Wire Wire Line
	4800 2650 4800 2750
Wire Wire Line
	4800 2750 4700 2750
Wire Wire Line
	6050 2050 5950 2050
Wire Wire Line
	6050 900  6050 2050
$Comp
L power:GND #PWR0103
U 1 1 5C07AA5A
P 5250 3000
F 0 "#PWR0103" H 5250 2750 50  0001 C CNN
F 1 "GND" H 5255 2827 50  0000 C CNN
F 2 "" H 5250 3000 50  0001 C CNN
F 3 "" H 5250 3000 50  0001 C CNN
	1    5250 3000
	1    0    0    -1  
$EndComp
Wire Wire Line
	5250 3000 5250 2850
Wire Wire Line
	5250 2850 5350 2850
Wire Wire Line
	5350 2750 5250 2750
Wire Wire Line
	5250 2750 5250 2850
Connection ~ 5250 2850
$Comp
L power:GND #PWR0104
U 1 1 5C07ADE1
P 6050 2950
F 0 "#PWR0104" H 6050 2700 50  0001 C CNN
F 1 "GND" H 6055 2777 50  0000 C CNN
F 2 "" H 6050 2950 50  0001 C CNN
F 3 "" H 6050 2950 50  0001 C CNN
	1    6050 2950
	1    0    0    -1  
$EndComp
Wire Wire Line
	6050 2950 6050 2850
Wire Wire Line
	6050 2850 5950 2850
$Comp
L Device:CP_Small C6
U 1 1 5C07B23D
P 3500 3450
F 0 "C6" H 3588 3496 50  0000 L CNN
F 1 "33u" H 3588 3405 50  0000 L CNN
F 2 "Capacitor_THT:CP_Radial_D5.0mm_P2.00mm" H 3500 3450 50  0001 C CNN
F 3 "~" H 3500 3450 50  0001 C CNN
	1    3500 3450
	1    0    0    -1  
$EndComp
Wire Wire Line
	3500 3350 3500 3150
Wire Wire Line
	3500 3150 3700 3150
$Comp
L power:GND #PWR0105
U 1 1 5C07B54C
P 3500 3550
F 0 "#PWR0105" H 3500 3300 50  0001 C CNN
F 1 "GND" H 3505 3377 50  0000 C CNN
F 2 "" H 3500 3550 50  0001 C CNN
F 3 "" H 3500 3550 50  0001 C CNN
	1    3500 3550
	1    0    0    -1  
$EndComp
$Comp
L Device:R R4
U 1 1 5C07B68F
P 2850 3400
F 0 "R4" H 2920 3446 50  0000 L CNN
F 1 "10k" H 2920 3355 50  0000 L CNN
F 2 "Resistor_THT:R_Axial_DIN0204_L3.6mm_D1.6mm_P7.62mm_Horizontal" V 2780 3400 50  0001 C CNN
F 3 "~" H 2850 3400 50  0001 C CNN
	1    2850 3400
	1    0    0    -1  
$EndComp
$Comp
L Device:C_Small C5
U 1 1 5C07B759
P 3200 3450
F 0 "C5" H 3292 3496 50  0000 L CNN
F 1 "1n" H 3292 3405 50  0000 L CNN
F 2 "Capacitor_THT:C_Rect_L7.0mm_W2.0mm_P5.00mm" H 3200 3450 50  0001 C CNN
F 3 "~" H 3200 3450 50  0001 C CNN
	1    3200 3450
	1    0    0    -1  
$EndComp
Wire Wire Line
	3700 3050 3600 3050
Wire Wire Line
	3600 3050 3600 2950
Wire Wire Line
	3600 2950 3700 2950
Wire Wire Line
	3600 2950 3200 2950
Wire Wire Line
	3200 2950 3200 3350
Connection ~ 3600 2950
$Comp
L power:GND #PWR0106
U 1 1 5C07C943
P 3200 3550
F 0 "#PWR0106" H 3200 3300 50  0001 C CNN
F 1 "GND" H 3205 3377 50  0000 C CNN
F 2 "" H 3200 3550 50  0001 C CNN
F 3 "" H 3200 3550 50  0001 C CNN
	1    3200 3550
	1    0    0    -1  
$EndComp
$Comp
L power:GND #PWR0107
U 1 1 5C07C95C
P 2850 3550
F 0 "#PWR0107" H 2850 3300 50  0001 C CNN
F 1 "GND" H 2855 3377 50  0000 C CNN
F 2 "" H 2850 3550 50  0001 C CNN
F 3 "" H 2850 3550 50  0001 C CNN
	1    2850 3550
	1    0    0    -1  
$EndComp
Wire Wire Line
	2850 3250 2850 2850
Wire Wire Line
	2850 2850 3700 2850
$Comp
L power:GND #PWR0108
U 1 1 5C07D552
P 2300 3450
F 0 "#PWR0108" H 2300 3200 50  0001 C CNN
F 1 "GND" H 2305 3277 50  0000 C CNN
F 2 "" H 2300 3450 50  0001 C CNN
F 3 "" H 2300 3450 50  0001 C CNN
	1    2300 3450
	1    0    0    -1  
$EndComp
Wire Wire Line
	2600 2550 3700 2550
Text Label 6650 900  0    50   ~ 0
VCC
$Comp
L Device:R R3
U 1 1 5C07E567
P 2300 3200
F 0 "R3" H 2370 3246 50  0000 L CNN
F 1 "10k" H 2370 3155 50  0000 L CNN
F 2 "Resistor_THT:R_Axial_DIN0204_L3.6mm_D1.6mm_P7.62mm_Horizontal" V 2230 3200 50  0001 C CNN
F 3 "~" H 2300 3200 50  0001 C CNN
	1    2300 3200
	1    0    0    -1  
$EndComp
$Comp
L Device:R R2
U 1 1 5C07E759
P 2300 2800
F 0 "R2" H 2370 2846 50  0000 L CNN
F 1 "10k" H 2370 2755 50  0000 L CNN
F 2 "Resistor_THT:R_Axial_DIN0204_L3.6mm_D1.6mm_P7.62mm_Horizontal" V 2230 2800 50  0001 C CNN
F 3 "~" H 2300 2800 50  0001 C CNN
	1    2300 2800
	1    0    0    -1  
$EndComp
Wire Wire Line
	2300 3350 2300 3450
Text Label 6150 4200 0    50   ~ 0
REF
Wire Wire Line
	2050 2450 2050 4200
Wire Wire Line
	2300 2650 2300 2450
Wire Wire Line
	2300 2450 3700 2450
Wire Wire Line
	2300 2450 2050 2450
Connection ~ 2300 2450
Wire Wire Line
	3700 2250 1900 2250
Wire Wire Line
	1900 2250 1900 4400
Wire Wire Line
	1900 4400 5950 4400
Text Label 6150 4400 0    50   ~ 0
IN-
$Comp
L Device:R R5
U 1 1 5C0861C1
P 5950 4700
F 0 "R5" H 6020 4746 50  0000 L CNN
F 1 "1k" H 6020 4655 50  0000 L CNN
F 2 "Resistor_THT:R_Axial_DIN0204_L3.6mm_D1.6mm_P7.62mm_Horizontal" V 5880 4700 50  0001 C CNN
F 3 "~" H 5950 4700 50  0001 C CNN
	1    5950 4700
	1    0    0    -1  
$EndComp
Wire Wire Line
	5950 4550 5950 4400
Connection ~ 5950 4400
$Comp
L power:GND #PWR0109
U 1 1 5C087002
P 5950 4850
F 0 "#PWR0109" H 5950 4600 50  0001 C CNN
F 1 "GND" H 5955 4677 50  0000 C CNN
F 2 "" H 5950 4850 50  0001 C CNN
F 3 "" H 5950 4850 50  0001 C CNN
	1    5950 4850
	1    0    0    -1  
$EndComp
$Comp
L Device:C_Small C3
U 1 1 5C087A89
P 1600 2800
F 0 "C3" H 1692 2846 50  0000 L CNN
F 1 "10n" H 1692 2755 50  0000 L CNN
F 2 "Capacitor_THT:C_Rect_L7.0mm_W2.0mm_P5.00mm" H 1600 2800 50  0001 C CNN
F 3 "~" H 1600 2800 50  0001 C CNN
	1    1600 2800
	1    0    0    -1  
$EndComp
$Comp
L power:GND #PWR0110
U 1 1 5C087B19
P 1600 2900
F 0 "#PWR0110" H 1600 2650 50  0001 C CNN
F 1 "GND" H 1605 2727 50  0000 C CNN
F 2 "" H 1600 2900 50  0001 C CNN
F 3 "" H 1600 2900 50  0001 C CNN
	1    1600 2900
	1    0    0    -1  
$EndComp
Wire Wire Line
	1600 2700 1600 2450
Wire Wire Line
	1600 2450 2050 2450
Connection ~ 2050 2450
$Comp
L Device:C_Small C1
U 1 1 5C088C73
P 1250 2800
F 0 "C1" H 1342 2846 50  0000 L CNN
F 1 "10n" H 1342 2755 50  0000 L CNN
F 2 "Capacitor_THT:C_Rect_L7.0mm_W2.0mm_P5.00mm" H 1250 2800 50  0001 C CNN
F 3 "~" H 1250 2800 50  0001 C CNN
	1    1250 2800
	1    0    0    -1  
$EndComp
$Comp
L power:GND #PWR0111
U 1 1 5C088CA3
P 1250 2900
F 0 "#PWR0111" H 1250 2650 50  0001 C CNN
F 1 "GND" H 1255 2727 50  0000 C CNN
F 2 "" H 1250 2900 50  0001 C CNN
F 3 "" H 1250 2900 50  0001 C CNN
	1    1250 2900
	1    0    0    -1  
$EndComp
Wire Wire Line
	1250 2700 1250 2350
Wire Wire Line
	1250 2350 3700 2350
$Comp
L Device:R R1
U 1 1 5C08A3CE
P 1550 2250
F 0 "R1" V 1343 2250 50  0000 C CNN
F 1 "470k" V 1434 2250 50  0000 C CNN
F 2 "Resistor_THT:R_Axial_DIN0204_L3.6mm_D1.6mm_P7.62mm_Horizontal" V 1480 2250 50  0001 C CNN
F 3 "~" H 1550 2250 50  0001 C CNN
	1    1550 2250
	0    1    1    0   
$EndComp
Wire Wire Line
	1400 2250 1250 2250
Wire Wire Line
	1250 2250 1250 2350
Connection ~ 1250 2350
Wire Wire Line
	1700 2250 1900 2250
Connection ~ 1900 2250
$Comp
L Device:C_Small C2
U 1 1 5C08C9A2
P 1550 1900
F 0 "C2" V 1321 1900 50  0000 C CNN
F 1 "68n" V 1412 1900 50  0000 C CNN
F 2 "Capacitor_THT:C_Rect_L7.0mm_W2.0mm_P5.00mm" H 1550 1900 50  0001 C CNN
F 3 "~" H 1550 1900 50  0001 C CNN
	1    1550 1900
	0    1    1    0   
$EndComp
Wire Wire Line
	1650 1900 1900 1900
Wire Wire Line
	1900 1900 1900 2250
Wire Wire Line
	1450 1900 1250 1900
Wire Wire Line
	1250 1900 1250 2250
Connection ~ 1250 2250
Wire Wire Line
	2300 2950 2300 3000
Wire Wire Line
	2150 2150 2150 3000
Wire Wire Line
	2150 3000 2300 3000
Wire Wire Line
	2150 2150 3700 2150
Connection ~ 2300 3000
Wire Wire Line
	2300 3000 2300 3050
$Comp
L Device:D_Schottky D2
U 1 1 5C0914FF
P 6200 1200
F 0 "D2" V 6246 1121 50  0000 R CNN
F 1 "D_Schottky" V 6155 1121 50  0000 R CNN
F 2 "Diode_THT:D_T-1_P10.16mm_Horizontal" H 6200 1200 50  0001 C CNN
F 3 "~" H 6200 1200 50  0001 C CNN
	1    6200 1200
	0    -1   -1   0   
$EndComp
Wire Wire Line
	6200 1350 6200 2150
Wire Wire Line
	6200 2150 5950 2150
Wire Wire Line
	6200 1050 6200 900 
Connection ~ 6200 900 
Wire Wire Line
	6200 900  6050 900 
$Comp
L Device:C_Small C10
U 1 1 5C09461C
P 6200 2350
F 0 "C10" H 6292 2396 50  0000 L CNN
F 1 "1u" H 6292 2305 50  0000 L CNN
F 2 "Capacitor_THT:C_Rect_L7.0mm_W2.0mm_P5.00mm" H 6200 2350 50  0001 C CNN
F 3 "~" H 6200 2350 50  0001 C CNN
	1    6200 2350
	1    0    0    -1  
$EndComp
Wire Wire Line
	6200 2250 6200 2150
Connection ~ 6200 2150
Wire Wire Line
	6200 2450 6200 2650
Wire Wire Line
	6200 2650 5950 2650
Wire Wire Line
	4200 900  5150 900 
Wire Wire Line
	5150 2050 5350 2050
Wire Wire Line
	5150 2050 5150 900 
Connection ~ 5150 2050
Connection ~ 5150 900 
Wire Wire Line
	5150 900  6050 900 
$Comp
L Device:C_Small C8
U 1 1 5C09DFAC
P 5150 2200
F 0 "C8" H 5250 2200 50  0000 L CNN
F 1 "100n" H 5200 2100 50  0000 L CNN
F 2 "Capacitor_SMD:C_1206_3216Metric_Pad1.42x1.75mm_HandSolder" H 5150 2200 50  0001 C CNN
F 3 "~" H 5150 2200 50  0001 C CNN
	1    5150 2200
	1    0    0    -1  
$EndComp
$Comp
L power:GND #PWR0113
U 1 1 5C09F923
P 5150 2300
F 0 "#PWR0113" H 5150 2050 50  0001 C CNN
F 1 "GND" H 5155 2127 50  0000 C CNN
F 2 "" H 5150 2300 50  0001 C CNN
F 3 "" H 5150 2300 50  0001 C CNN
	1    5150 2300
	1    0    0    -1  
$EndComp
$Comp
L Device:C_Small C4
U 1 1 5C09FD8E
P 3550 1250
F 0 "C4" H 3642 1296 50  0000 L CNN
F 1 "100n" H 3642 1205 50  0000 L CNN
F 2 "Capacitor_SMD:C_1206_3216Metric_Pad1.42x1.75mm_HandSolder" H 3550 1250 50  0001 C CNN
F 3 "~" H 3550 1250 50  0001 C CNN
	1    3550 1250
	1    0    0    -1  
$EndComp
$Comp
L power:GND #PWR0115
U 1 1 5C09FE2F
P 3550 1350
F 0 "#PWR0115" H 3550 1100 50  0001 C CNN
F 1 "GND" H 3555 1177 50  0000 C CNN
F 2 "" H 3550 1350 50  0001 C CNN
F 3 "" H 3550 1350 50  0001 C CNN
	1    3550 1350
	1    0    0    -1  
$EndComp
Wire Wire Line
	3550 1150 3550 900 
Connection ~ 3950 900 
Wire Wire Line
	3950 900  4200 900 
Wire Wire Line
	2050 4200 7100 4200
Wire Wire Line
	5950 4400 7150 4400
Text Label 6950 2550 0    50   ~ 0
HI
Text Label 6950 2750 0    50   ~ 0
LO
Connection ~ 6200 2650
Text Label 6950 2650 0    50   ~ 0
VS
$Comp
L Connector:Conn_01x08_Male J1
U 1 1 5C0ADA7F
P 7950 2650
F 0 "J1" H 7922 2673 50  0000 R CNN
F 1 "connector" H 7922 2582 50  0000 R CNN
F 2 "Connector_PinHeader_2.54mm:PinHeader_1x08_P2.54mm_Vertical" H 7950 2650 50  0001 C CNN
F 3 "~" H 7950 2650 50  0001 C CNN
	1    7950 2650
	-1   0    0    -1  
$EndComp
$Comp
L power:GND #PWR0116
U 1 1 5C0ADDE1
P 7650 3150
F 0 "#PWR0116" H 7650 2900 50  0001 C CNN
F 1 "GND" H 7655 2977 50  0000 C CNN
F 2 "" H 7650 3150 50  0001 C CNN
F 3 "" H 7650 3150 50  0001 C CNN
	1    7650 3150
	1    0    0    -1  
$EndComp
Wire Wire Line
	5950 2750 7750 2750
Wire Wire Line
	6200 2650 7750 2650
Wire Wire Line
	5950 2550 7750 2550
Wire Wire Line
	7400 900  7400 2450
Wire Wire Line
	7400 2450 7750 2450
Wire Wire Line
	5150 2100 5150 2050
Wire Wire Line
	3550 900  3950 900 
$Comp
L Device:CP C7
U 1 1 5C0D01AC
P 6850 1250
F 0 "C7" H 6968 1296 50  0000 L CNN
F 1 "100u" H 6968 1205 50  0000 L CNN
F 2 "Capacitor_THT:CP_Radial_D8.0mm_P3.50mm" H 6888 1100 50  0001 C CNN
F 3 "~" H 6850 1250 50  0001 C CNN
	1    6850 1250
	1    0    0    -1  
$EndComp
Wire Wire Line
	6850 1100 6850 900 
Connection ~ 6850 900 
Wire Wire Line
	6850 900  6200 900 
$Comp
L power:GND #PWR0112
U 1 1 5C0D22AF
P 6850 1400
F 0 "#PWR0112" H 6850 1150 50  0001 C CNN
F 1 "GND" H 6855 1227 50  0000 C CNN
F 2 "" H 6850 1400 50  0001 C CNN
F 3 "" H 6850 1400 50  0001 C CNN
	1    6850 1400
	1    0    0    -1  
$EndComp
Wire Wire Line
	7150 2850 7750 2850
Wire Wire Line
	7150 2850 7150 4400
Wire Wire Line
	7650 2950 7750 2950
Wire Wire Line
	7650 2950 7650 3150
Wire Wire Line
	7100 4200 7100 2350
Wire Wire Line
	7100 2350 7750 2350
Wire Wire Line
	2600 3950 6700 3950
Wire Wire Line
	6700 3950 6700 3050
Wire Wire Line
	6700 3050 6850 3050
Wire Wire Line
	2600 2550 2600 3950
$Comp
L Device:R R6
U 1 1 5D45E2A8
P 6850 3300
F 0 "R6" H 6920 3346 50  0000 L CNN
F 1 "10k" H 6920 3255 50  0000 L CNN
F 2 "Resistor_THT:R_Axial_DIN0204_L3.6mm_D1.6mm_P7.62mm_Horizontal" V 6780 3300 50  0001 C CNN
F 3 "~" H 6850 3300 50  0001 C CNN
	1    6850 3300
	1    0    0    -1  
$EndComp
Wire Wire Line
	6850 3150 6850 3050
Connection ~ 6850 3050
Wire Wire Line
	6850 3050 7750 3050
$Comp
L power:GND #PWR0114
U 1 1 5D460A9B
P 6850 3450
F 0 "#PWR0114" H 6850 3200 50  0001 C CNN
F 1 "GND" H 6855 3277 50  0000 C CNN
F 2 "" H 6850 3450 50  0001 C CNN
F 3 "" H 6850 3450 50  0001 C CNN
	1    6850 3450
	1    0    0    -1  
$EndComp
$EndSCHEMATC
